^C:\USERS\S4\SOURCE\REPOS\MULTICLIENTSSERVER\MULTICLIENTSSERVER\DEBUG\MAIN.OBJ
C:\USERS\S4\SOURCE\REPOS\MULTICLIENTSSERVER\DEBUG\MULTICLIENTSSERVER.ILK
C:\USERS\S4\SOURCE\REPOS\MULTICLIENTSSERVER\DEBUG\MULTICLIENTSSERVER.EXE
C:\USERS\S4\SOURCE\REPOS\MULTICLIENTSSERVER\DEBUG\MULTICLIENTSSERVER.PDB
