^C:\USERS\S4\SOURCE\REPOS\SIYASERVER\SIYASERVER\DEBUG\MAIN.OBJ
C:\USERS\S4\SOURCE\REPOS\SIYASERVER\DEBUG\SIYASERVER.EXE
C:\USERS\S4\SOURCE\REPOS\SIYASERVER\DEBUG\SIYASERVER.ILK
C:\USERS\S4\SOURCE\REPOS\SIYASERVER\DEBUG\SIYASERVER.PDB
