^C:\USERS\S4\SOURCE\REPOS\CONSOLEAPPLICATION4\CONSOLEAPPLICATION4\CONSOLEAPPLICATION4.CPP
C:\USERS\S4\SOURCE\REPOS\CONSOLEAPPLICATION4\CONSOLEAPPLICATION4\DEBUG\VC142.PDB
C:\USERS\S4\SOURCE\REPOS\CONSOLEAPPLICATION4\CONSOLEAPPLICATION4\DEBUG\VC142.IDB
C:\USERS\S4\SOURCE\REPOS\CONSOLEAPPLICATION4\CONSOLEAPPLICATION4\DEBUG\CONSOLEAPPLICATION4.OBJ
