^C:\USERS\S4\SOURCE\REPOS\CLIENTSERVER\CLIENTSERVER\DEBUG\MAIN.OBJ|C:\USERS\S4\SOURCE\REPOS\CLIENTSERVER\CLIENTSERVER\DEBUG\TCPLISTENER.OBJ
/OUT:"C:\USERS\S4\SOURCE\REPOS\CLIENTSERVER\DEBUG\CLIENTSERVER.EXE" /INCREMENTAL /NOLOGO KERNEL32.LIB USER32.LIB GDI32.LIB WINSPOOL.LIB COMDLG32.LIB ADVAPI32.LIB SHELL32.LIB OLE32.LIB OLEAUT32.LIB UUID.LIB ODBC32.LIB ODBCCP32.LIB /MANIFEST /MANIFESTUAC:"level='asInvoker' uiAccess='false'" /manifest:embed /DEBUG:FASTLINK /PDB:"C:\USERS\S4\SOURCE\REPOS\CLIENTSERVER\DEBUG\CLIENTSERVER.PDB" /SUBSYSTEM:CONSOLE /TLBID:1 /DYNAMICBASE /NXCOMPAT /IMPLIB:"C:\USERS\S4\SOURCE\REPOS\CLIENTSERVER\DEBUG\CLIENTSERVER.LIB" /MACHINE:X86 DEBUG\MAIN.OBJ
DEBUG\TCPLISTENER.OBJ
