^C:\USERS\S4\SOURCE\REPOS\SIYACLIENT\SIYACLIENT\DEBUG\MAIN.OBJ
C:\USERS\S4\SOURCE\REPOS\SIYACLIENT\DEBUG\SIYACLIENT.ILK
C:\USERS\S4\SOURCE\REPOS\SIYACLIENT\DEBUG\SIYACLIENT.EXE
C:\USERS\S4\SOURCE\REPOS\SIYACLIENT\DEBUG\SIYACLIENT.PDB
