^C:\DEV\CONSOLEAPPLICATION2\CONSOLEAPPLICATION2\DEBUG\CONSOLEAPPLICATION2.OBJ
C:\DEV\CONSOLEAPPLICATION2\DEBUG\CONSOLEAPPLICATION2.EXE
C:\DEV\CONSOLEAPPLICATION2\DEBUG\CONSOLEAPPLICATION2.ILK
C:\DEV\CONSOLEAPPLICATION2\DEBUG\CONSOLEAPPLICATION2.PDB
